{
    "apps" : [
        {"name":"Grafana","url":"grafana.tui.lan","icon":"message-video"},
        {"name":"Paperless","url":"paperless.tui.lan","icon":"file"},
        {"name":"Navidrome","url":"juliansmusic.tui.lan","icon":"music"},
        {"name":"Wallabag","url":"wallabag.tui.lan","icon":"bookmark"},
        {"name":"Calibre-Web","url":"juliansbooks.tui.lan","icon":"book-open-variant"},
        {"name":"Pinry","url":"pinry.tui.lan","icon":"pin"},
        {"name":"Wekan","url":"wekan.tui.lan","icon":"trello"},
        {"name":"GitLab","url":"gitlab.tui.lan","icon":"gitlab"},
        {"name":"MkDocs","url":"mkdocs.tui.lan","icon":"wikipedia"},
        {"name":"VSCode","url":"vscode.tui.lan","icon":"microsoft-visual-studio-code"},
        {"name":"CloudCMD","url":"files.example.com","icon":"folder-multiple-outline"},
        {"name":"RSS","url":"rss.example.com","icon":"rss"},
        {"name":"Filestash","url":"cloud.example.com","icon":"package"},
        {"name":"Minio","url":"minio.example.com","icon":"server"},
        {"name":"Nextcloud","url":"cloud.example.com","icon":"weather-cloudy"},
        {"name":"Pi-hole","url":"192.168.1.141:5353/admin","icon":"do-not-disturb"},
        {"name":"Stackedit","url":"md.example.com","icon":"markdown"},
        {"name":"Calibre-Web","url":"opds.example.com","icon":"library-shelves"},
        {"name":"Youtube-DL-Material","url":"yt.example.com","icon":"youtube"}
    ]
}
